{
  "project_info": {
    "project_id": "pythonic-test-3",
    "project_number": "77710956362",
    "name": "pythonic-test-3"
  },
  "client": [
    {
      "client_info": {
        "mobilesdk_app_id": "1:77710956362:android:993982b7ea56fa12",
        "client_id": "android:com.github.lcouto.signinapp",
        "client_type": 1,
        "android_client_info": {
          "package_name": "com.github.lcouto.signinapp",
          "certificate_hash": []
        }
      },
      "oauth_client": [
        {
          "client_id": "77710956362-5umm7bbm52qsh5evch0e95v775hvqmv0.apps.googleusercontent.com",
          "client_type": 1,
          "android_info": {
            "package_name": "com.github.lcouto.signinapp",
            "certificate_hash": "68089963131AF1056EBE954CF072E75BF4253E2F"
          }
        },
        {
          "client_id": "77710956362-36ecd1a98duotbnkbvltvqqgeujrkqt9.apps.googleusercontent.com",
          "client_type": 3
        }
      ],
      "api_key": [],
      "services": {
        "analytics_service": {
          "status": 1
        },
        "cloud_messaging_service": {
          "status": 1,
          "apns_config": []
        },
        "appinvite_service": {
          "status": 1,
          "other_platform_oauth_client": []
        },
        "google_signin_service": {
          "status": 2
        },
        "ads_service": {
          "status": 1
        }
      }
    }
  ],
  "client_info": [],
  "ARTIFACT_VERSION": "1"
}
